What the Package Does (One Line, Title Case) • OmopSketch
…
#> ℹ Building new trimmed cohort
#> Warning: ! 1 column in tmp_004_og_009_1726511493 do not match expected column type:
#> • `cohort_definition_id` is numeric but expected integer
#> Creating initial cohort
#> ! cohort columns will be reordered to match the expected order:
#>   cohort_definition_id, subject_id, cohort_start_date, and cohort_end_date.
#> ! cohort columns will be reordered to match the expected order:
#>   cohort_definition_id, subject_id, cohort_start_date, and cohort_end_date.
#> ✔ Cohort trimmed
#> ℹ adding demographics columns
#> 
#> ℹ summarising data
#> 
#> ✔ summariseCharacteristics finished!
#> # A tibble: 42 × 13
#>    result_id cdm_name            group_name group_level strata_name strata_level
#>        <int> <chr>               <chr>      <chr>       <chr>       <chr>       
#>  1         1 Synthea synthetic … cohort_na… demographi… overall     overall     
#>  2         1 Synthea synthetic … cohort_na… demographi… overall     overall     
#>  3         1 Synthea synthetic … cohort_na… demographi… overall     overall     
#>  4         1 Synthea synthetic … cohort_na… demographi… overall     overall     
#>  5         1 Synthea synthetic … cohort_na… demographi… overall     overall     
#>  6         1 Synthea synthetic … cohort_na… demographi… overall     overall     
#>  7         1 Synthea synthetic … cohort_na… demographi… overall     overall     
#>  8         1 Synthea synthetic … cohort_na… demographi… overall     overall     
#>  9         1 Synthea synthetic … cohort_na… demographi… overall     overall     
#> 10         1 Synthea synthetic … cohort_na… demographi… overall     overall     
#> # ℹ 32 more rows
#> # ℹ 7 more variables: variable_name <chr>, variable_level <chr>,
#> #   estimate_name <chr>, estimate_type <chr>, estimate_value <chr>,
#> #   additional_name <chr>, additional_level <chr>
…
