Summarise an omop table from a cdm object. You will obtain information related to the number of records, number of subjects, whether the records are in observation, number of present domains, number o
…
summarisedResult
#> # A tibble: 71 × 13
#>    result_id cdm_name       group_name group_level      strata_name strata_level
#>        <int> <chr>          <chr>      <chr>            <chr>       <chr>       
#>  1         1 mockOmopSketch omop_table condition_occur… overall     overall     
#>  2         1 mockOmopSketch omop_table condition_occur… overall     overall     
#>  3         1 mockOmopSketch omop_table condition_occur… overall     overall     
#>  4         1 mockOmopSketch omop_table condition_occur… overall     overall     
#>  5         1 mockOmopSketch omop_table condition_occur… overall     overall     
#>  6         1 mockOmopSketch omop_table condition_occur… overall     overall     
#>  7         1 mockOmopSketch omop_table condition_occur… overall     overall     
#>  8         1 mockOmopSketch omop_table condition_occur… overall     overall     
#>  9         1 mockOmopSketch omop_table condition_occur… overall     overall     
#> 10         1 mockOmopSketch omop_table condition_occur… overall     overall     
#> # ℹ 61 more rows
#> # ℹ 7 more variables: variable_name <chr>, variable_level <chr>,
#> #   estimate_name <chr>, estimate_type <chr>, estimate_value <chr>,
#> #   additional_name <chr>, additional_level <chr>
…
