Summarise clinical tables records • OmopSketch
…
q05
14

Summarise record counts

OmopSketch can also help you to summarise the trend of the records of
an omop table. See the example below, where we use
summariseRecordCount() to count the number of records
within each year, and then, we use plotRecordCount() to
create a ggplot with the trend.

summarisedResult <- summariseRecordCount(cdm, "drug_exposure", unit = "year", unitInterval = 1)

summarisedResult |> print()
#> # A tibble: 111 × 13
#>    result_id cdm_name            group_name group_level strata_name strata_level
#>        <int> <chr>               <chr>      <chr>       <chr>       <chr>       
#>  1         1 Synthea synthetic … omop_table drug_expos… overall     overall     
#>  2         1 Synthea synthetic … omop_table drug_expos… overall     overall     
#>  3         1 Synthea synthetic … omop_table drug_expos… overall     overall     
#>  4         1 Synthea synthetic … omop_table drug_expos… overall     overall     
#>  5         1 Synthea synthetic … omop_table drug_expos… overall     overall     
#>  6         1 Synthea synthetic … omop_table drug_expos… overall     overall     
#>  7         1 Synthea synthetic … omop_table drug_expos… overall     overall     
#>  8         1 Synthea synthetic … omop_table drug_expos… overall     overall     
#>  9         1 Synthea synthetic … omop_table drug_expos… overall     overall     
#> 10         1 Synthea synthetic … omop_table drug_expos… overall     overall     
#> # ℹ 101 more rows
#> # ℹ 7 more variables: variable_name <chr>, variable_level <chr>,
#> #   estimate_name <chr>, estimate_type <chr>, estimate_value <chr>,
#> #   additional_name <chr>, additional_level <chr>
…
