…
``` r
summarisedResult <- summariseTrend(
  cdm = cdm,
  event = "condition_occurrence",
  output = c("record", "person"),
  interval = "years"
)


summarisedResult |>
  select(group_level, variable_name, additional_level, estimate_name, estimate_value)
#> # A tibble: 264 × 5
#>    group_level       variable_name additional_level estimate_name estimate_value
#>    <chr>             <chr>         <chr>            <chr>         <chr>         
#>  1 condition_occurr… Number of re… 1955-01-01 to 1… count         4             
#>  2 condition_occurr… Number of su… 1955-01-01 to 1… count         1             
#>  3 condition_occurr… Number of re… 1955-01-01 to 1… percentage    0.05          
#>  4 condition_occurr… Number of su… 1955-01-01 to 1… percentage    1.00          
#>  5 condition_occurr… Number of re… 1956-01-01 to 1… count         12            
#>  6 condition_occurr… Number of su… 1956-01-01 to 1… count         2             
#>  7 condition_occurr… Number of re… 1956-01-01 to 1… percentage    0.14          
#>  8 condition_occurr… Number of su… 1956-01-01 to 1… percentage    2.00          
#>  9 condition_occurr… Number of re… 1957-01-01 to 1… count         19            
#> 10 condition_occurr… Number of su… 1957-01-01 to 1… count         3             
#> # ℹ 254 more rows
```
…
``` r
summarisedResult <- summariseTrend(
  cdm = cdm,
  episode = "observation_period",
  output = "person-days",
  interval = "years"
)

summarisedResult |>
  select(group_level, variable_name, additional_level, estimate_name, estimate_value)
#> # A tibble: 132 × 5
#>    group_level       variable_name additional_level estimate_name estimate_value
#>    <chr>             <chr>         <chr>            <chr>         <chr>         
#>  1 observation_peri… Person-days   1955-01-01 to 1… count         181           
#>  2 observation_peri… Person-days   1955-01-01 to 1… percentage    0.05          
#>  3 observation_peri… Person-days   1956-01-01 to 1… count         507           
#>  4 observation_peri… Person-days   1956-01-01 to 1… percentage    0.15          
#>  5 observation_peri… Person-days   1957-01-01 to 1… count         825           
#>  6 observation_peri… Person-days   1957-01-01 to 1… percentage    0.24          
#>  7 observation_peri… Person-days   1958-01-01 to 1… count         1099          
#>  8 observation_peri… Person-days   1958-01-01 to 1… percentage    0.32          
#>  9 observation_peri… Person-days   1959-01-01 to 1… count         1124          
#> 10 observation_peri… Person-days   1959-01-01 to 1… percentage    0.32          
#> # ℹ 122 more rows
```
…
``` r
summarisedResult <- summariseTrend(
  cdm = cdm,
  event = "condition_occurrence",
  output = "age",
  interval = "years"
)

summarisedResult |>
  select(variable_name, additional_level, estimate_name, estimate_value)
#> # A tibble: 66 × 4
#>    variable_name additional_level         estimate_name estimate_value
#>    <chr>         <chr>                    <chr>         <chr>         
#>  1 Age           1955-01-01 to 1955-12-31 median        1             
#>  2 Age           1956-01-01 to 1956-12-31 median        2             
#>  3 Age           1957-01-01 to 1957-12-31 median        2             
#>  4 Age           1958-01-01 to 1958-12-31 median        1             
#>  5 Age           1959-01-01 to 1959-12-31 median        4             
#>  6 Age           1960-01-01 to 1960-12-31 median        4             
#>  7 Age           1961-01-01 to 1961-12-31 median        3             
#>  8 Age           1962-01-01 to 1962-12-31 median        4             
#>  9 Age           1963-01-01 to 1963-12-31 median        7             
#> 10 Age           1964-01-01 to 1964-12-31 median        8             
#> # ℹ 56 more rows
```
…
``` r
summarisedResult <- summariseTrend(
  cdm = cdm,
  event = "condition_occurrence",
  output = "sex",
  interval = "years"
)
summarisedResult |>
  select(variable_name, additional_level, estimate_name, estimate_value)
#> # A tibble: 124 × 4
#>    variable_name     additional_level         estimate_name estimate_value
#>    <chr>             <chr>                    <chr>         <chr>         
#>  1 Number of females 1959-01-01 to 1959-12-31 count         1             
#>  2 Number of females 1959-01-01 to 1959-12-31 percentage    1.00          
#>  3 Number of females 1960-01-01 to 1960-12-31 count         1             
#>  4 Number of females 1960-01-01 to 1960-12-31 percentage    1.00          
#>  5 Number of females 1961-01-01 to 1961-12-31 count         1             
#>  6 Number of females 1961-01-01 to 1961-12-31 percentage    1.00          
#>  7 Number of females 1962-01-01 to 1962-12-31 count         1             
#>  8 Number of females 1962-01-01 to 1962-12-31 percentage    1.00          
#>  9 Number of females 1963-01-01 to 1963-12-31 count         1             
#> 10 Number of females 1963-01-01 to 1963-12-31 percentage    1.00          
#> # ℹ 114 more rows
```
…
For example, to see quarterly trends:

``` r
summarisedResult <- summariseTrend(
  cdm = cdm,
  event = "condition_occurrence",
  interval = "quarters",
  output = "record"
)

summarisedResult |>
  select(additional_level, estimate_value)
#> # A tibble: 518 × 2
#>    additional_level         estimate_value
#>    <chr>                    <chr>         
#>  1 1955-07-01 to 1955-09-30 2             
#>  2 1955-07-01 to 1955-09-30 0.02          
#>  3 1955-10-01 to 1955-12-31 2             
#>  4 1955-10-01 to 1955-12-31 0.02          
#>  5 1956-01-01 to 1956-03-31 3             
#>  6 1956-01-01 to 1956-03-31 0.04          
#>  7 1956-04-01 to 1956-06-30 3             
#>  8 1956-04-01 to 1956-06-30 0.04          
#>  9 1956-07-01 to 1956-09-30 3             
#> 10 1956-07-01 to 1956-09-30 0.04          
#> # ℹ 508 more rows
```
…
You can use the arguments `ageGroup` and `sex` to stratify the results.

``` r
summarisedResult <- summariseTrend(
  cdm = cdm,
  event = "condition_occurrence",
  interval = "years",
  output = c("record", "age", "sex"),
  ageGroup = list("<35" = c(0, 34), ">=35" = c(35, Inf)),
  sex = TRUE
)

summarisedResult |>
  select(variable_name, strata_level, estimate_name, estimate_value)
#> # A tibble: 1,774 × 4
#>    variable_name     strata_level estimate_name estimate_value
#>    <chr>             <chr>        <chr>         <chr>         
#>  1 Number of records overall      count         4             
#>  2 Number of records <35          count         4             
#>  3 Number of records Male         count         4             
#>  4 Number of records Male &&& <35 count         4             
#>  5 Age               overall      median        1             
#>  6 Age               <35          median        1             
#>  7 Age               Male         median        1             
#>  8 Age               Male &&& <35 median        1             
#>  9 Number of records overall      percentage    0.05          
#> 10 Number of records <35          percentage    0.05          
#> # ℹ 1,764 more rows
```
…
