…
Let’s now use the
[`summariseObservationPeriod()`](https://OHDSI.github.io/OmopSketch/reference/summariseObservationPeriod.md)
function from the **OmopSketch** package to generate an overview of the
`observation_period` table.  
This function provides both a general summary of the table and some
detailed statistics, such as the **Number of subjects** and the
**Duration in days** for each observation period (e.g., first, second,
etc.).

``` r
summarisedResult <- summariseObservationPeriod(cdm = cdm)

summarisedResult
#> # A tibble: 3,126 × 13
#>    result_id cdm_name       group_name      group_level strata_name strata_level
#>        <int> <chr>          <chr>           <chr>       <chr>       <chr>       
#>  1         1 mockOmopSketch observation_pe… all         overall     overall     
#>  2         1 mockOmopSketch observation_pe… all         overall     overall     
#>  3         1 mockOmopSketch observation_pe… all         overall     overall     
#>  4         1 mockOmopSketch observation_pe… all         overall     overall     
#>  5         1 mockOmopSketch observation_pe… all         overall     overall     
#>  6         1 mockOmopSketch observation_pe… all         overall     overall     
#>  7         1 mockOmopSketch observation_pe… all         overall     overall     
#>  8         1 mockOmopSketch observation_pe… all         overall     overall     
#>  9         1 mockOmopSketch observation_pe… all         overall     overall     
#> 10         1 mockOmopSketch observation_pe… all         overall     overall     
#> # ℹ 3,116 more rows
#> # ℹ 7 more variables: variable_name <chr>, variable_level <chr>,
#> #   estimate_name <chr>, estimate_type <chr>, estimate_value <chr>,
#> #   additional_name <chr>, additional_level <chr>
```
…
