Summarise concept id counts • OmopSketch
…
By default, the function returns the number of records
(estimate_name == "count_records") for each concept_id. To
include counts by person, you can set the countBy argument
to "person" or to c("record", "person") to
obtain both record and person counts.

summariseConceptIdCounts(cdm,
  omopTableName = "drug_exposure",
  countBy = c("record", "person")
) |>
  select(variable_name, estimate_name, estimate_value)
#> # A tibble: 62 × 3
#>    variable_name                                    estimate_name estimate_value
#>    <chr>                                            <chr>         <chr>         
#>  1 glucagon Nasal Powder                            count_records 100           
#>  2 glucagon Nasal Powder                            count_subjec… 63            
#>  3 nitrogen Topical Liquefied Gas                   count_records 100           
#>  4 nitrogen Topical Liquefied Gas                   count_subjec… 62            
#>  5 sumatriptan Nasal Powder                         count_records 100           
#>  6 sumatriptan Nasal Powder                         count_subjec… 66            
#>  7 POTASSIUM SODIUM TARTRATE / Sodium Bicarbonate … count_records 100           
#>  8 POTASSIUM SODIUM TARTRATE / Sodium Bicarbonate … count_subjec… 60            
#>  9 Bos taurus catalase preparation                  count_records 100           
#> 10 Bos taurus catalase preparation                  count_subjec… 63            
#> # ℹ 52 more rows
…
