Summarise clinical tables records • OmopSketch
…
summarisedResult <- summariseClinicalRecords(cdm, omopTableName = "condition_occurrence")
#> ℹ Adding variables of interest to condition_occurrence.
#> ℹ Summarising records per person in condition_occurrence.
#> ℹ Summarising subjects not in person table in condition_occurrence.
#> ℹ Summarising records in observation in condition_occurrence.
#> ℹ Summarising records with start before birth date in condition_occurrence.
#> ℹ Summarising records with end date before start date in condition_occurrence.
#> ℹ Summarising domains in condition_occurrence.
#> ℹ Summarising standard concepts in condition_occurrence.
#> ℹ Summarising source vocabularies in condition_occurrence.
#> ℹ Summarising concept types in condition_occurrence.
#> ℹ Summarising missing data in condition_occurrence.

summarisedResult |> print()
#> # A tibble: 76 × 13
#>    result_id cdm_name       group_name group_level      strata_name strata_level
#>        <int> <chr>          <chr>      <chr>            <chr>       <chr>       
#>  1         1 mockOmopSketch omop_table condition_occur… overall     overall     
#>  2         1 mockOmopSketch omop_table condition_occur… overall     overall     
#>  3         1 mockOmopSketch omop_table condition_occur… overall     overall     
#>  4         1 mockOmopSketch omop_table condition_occur… overall     overall     
#>  5         1 mockOmopSketch omop_table condition_occur… overall     overall     
#>  6         1 mockOmopSketch omop_table condition_occur… overall     overall     
#>  7         1 mockOmopSketch omop_table condition_occur… overall     overall     
#>  8         1 mockOmopSketch omop_table condition_occur… overall     overall     
#>  9         1 mockOmopSketch omop_table condition_occur… overall     overall     
#> 10         1 mockOmopSketch omop_table condition_occur… overall     overall     
#> # ℹ 66 more rows
#> # ℹ 7 more variables: variable_name <chr>, variable_level <chr>,
#> #   estimate_name <chr>, estimate_type <chr>, estimate_value <chr>,
#> #   additional_name <chr>, additional_level <chr>
…
summarisedResult |>
  select(variable_name, variable_level, estimate_name, estimate_value) 
#> # A tibble: 29 × 4
#>    variable_name     variable_level          estimate_name estimate_value
#>    <chr>             <chr>                   <chr>         <chr>         
#>  1 Number subjects   NA                      count         100           
#>  2 Number subjects   NA                      percentage    100           
#>  3 Number records    NA                      count         21600         
#>  4 Domain            Drug                    count         21600         
#>  5 Standard concept  S                       count         21600         
#>  6 Source vocabulary No matching concept     count         21600         
#>  7 Type concept id   Unknown type concept: 0 count         21600         
#>  8 Concept class     Branded Drug            count         700           
#>  9 Concept class     Quant Branded Drug      count         100           
#> 10 Concept class     Branded Drug Comp       count         400           
#> # ℹ 19 more rows
…
summarisedResult <- summariseClinicalRecords(cdm,
  omopTableName = "condition_occurrence",
  recordsPerPerson = c(), 
  conceptSummary = FALSE,
  missing = TRUE,
  quality = FALSE
)
#> ℹ Adding variables of interest to condition_occurrence.
#> ℹ Summarising records per person in condition_occurrence.
#> ℹ Summarising missing data in condition_occurrence.

summarisedResult |>
  select(variable_name, variable_level, estimate_name, estimate_value) 
#> # A tibble: 53 × 4
#>    variable_name   variable_level          estimate_name   estimate_value
#>    <chr>           <chr>                   <chr>           <chr>         
#>  1 Number subjects NA                      count           100           
#>  2 Number subjects NA                      percentage      100           
#>  3 Number records  NA                      count           8400          
#>  4 Column name     condition_occurrence_id na_count        0             
#>  5 Column name     condition_occurrence_id na_percentage   0.00          
#>  6 Column name     condition_occurrence_id zero_count      0             
#>  7 Column name     condition_occurrence_id zero_percentage 0.00          
#>  8 Column name     person_id               na_count        0             
#>  9 Column name     person_id               na_percentage   0.00          
#> 10 Column name     person_id               zero_count      0             
#> # ℹ 43 more rows
…
summarisedResult |>
  select(variable_name, strata_level, estimate_name, estimate_value) 
#> # A tibble: 609 × 4
#>    variable_name      strata_level estimate_name estimate_value
#>    <chr>              <chr>        <chr>         <chr>         
#>  1 Number subjects    overall      count         100           
#>  2 Number subjects    overall      percentage    100           
#>  3 Records per person overall      mean          84            
#>  4 Records per person overall      sd            9.9666        
#>  5 Records per person overall      q05           68.9500       
#>  6 Records per person overall      q95           100.1000      
#>  7 Number records     overall      count         8400          
#>  8 Number subjects    <35          count         80            
#>  9 Number subjects    >=35         count         32            
#> 10 Number subjects    <35          percentage    100           
#> # ℹ 599 more rows
…
