Summarise temporal trends in OMOP tables • OmopSketch
…
summarisedResult <- summariseTrend(
  cdm = cdm,
  event = "condition_occurrence",
  output = c("record", "person"),
  interval = "years"
)

summarisedResult |>
  select(group_level, variable_name, additional_level, estimate_name, estimate_value)
#> # A tibble: 452 × 5
#>    group_level       variable_name additional_level estimate_name estimate_value
#>    <chr>             <chr>         <chr>            <chr>         <chr>         
#>  1 condition_occurr… Number of re… 1908-01-01 to 1… count         1             
#>  2 condition_occurr… Number of su… 1908-01-01 to 1… count         1             
#>  3 condition_occurr… Number of re… 1908-01-01 to 1… percentage    0.00          
#>  4 condition_occurr… Number of su… 1908-01-01 to 1… percentage    0.04          
#>  5 condition_occurr… Number of re… 1909-01-01 to 1… count         4             
#>  6 condition_occurr… Number of su… 1909-01-01 to 1… count         4             
#>  7 condition_occurr… Number of re… 1909-01-01 to 1… percentage    0.01          
#>  8 condition_occurr… Number of su… 1909-01-01 to 1… percentage    0.15          
#>  9 condition_occurr… Number of re… 1910-01-01 to 1… count         16            
#> 10 condition_occurr… Number of su… 1910-01-01 to 1… count         13            
#> # ℹ 442 more rows
…
summarisedResult <- summariseTrend(
  cdm = cdm,
  episode = "observation_period",
  output = "person-days",
  interval = "years"
)

summarisedResult |>
  select(group_level, variable_name, additional_level, estimate_name, estimate_value)
#> # A tibble: 226 × 5
#>    group_level       variable_name additional_level estimate_name estimate_value
#>    <chr>             <chr>         <chr>            <chr>         <chr>         
#>  1 observation_peri… Person-days   1908-01-01 to 1… count         175           
#>  2 observation_peri… Person-days   1908-01-01 to 1… percentage    0.00          
#>  3 observation_peri… Person-days   1909-01-01 to 1… count         4636          
#>  4 observation_peri… Person-days   1909-01-01 to 1… percentage    0.01          
#>  5 observation_peri… Person-days   1910-01-01 to 1… count         9946          
#>  6 observation_peri… Person-days   1910-01-01 to 1… percentage    0.01          
#>  7 observation_peri… Person-days   1911-01-01 to 1… count         13031         
#>  8 observation_peri… Person-days   1911-01-01 to 1… percentage    0.02          
#>  9 observation_peri… Person-days   1912-01-01 to 1… count         16986         
#> 10 observation_peri… Person-days   1912-01-01 to 1… percentage    0.02          
#> # ℹ 216 more rows
…
summarisedResult <- summariseTrend(
  cdm = cdm,
  event = "condition_occurrence",
  output = "age",
  interval = "years"
)

summarisedResult |>
  select(variable_name, additional_level, estimate_name, estimate_value)
#> # A tibble: 113 × 4
#>    variable_name additional_level         estimate_name estimate_value
#>    <chr>         <chr>                    <chr>         <chr>         
#>  1 Age           1908-01-01 to 1908-12-31 median        0             
#>  2 Age           1909-01-01 to 1909-12-31 median        0             
#>  3 Age           1910-01-01 to 1910-12-31 median        1             
#>  4 Age           1911-01-01 to 1911-12-31 median        1             
#>  5 Age           1912-01-01 to 1912-12-31 median        1             
#>  6 Age           1913-01-01 to 1913-12-31 median        1             
#>  7 Age           1914-01-01 to 1914-12-31 median        3             
#>  8 Age           1915-01-01 to 1915-12-31 median        3             
#>  9 Age           1916-01-01 to 1916-12-31 median        4             
#> 10 Age           1917-01-01 to 1917-12-31 median        5             
#> # ℹ 103 more rows
…
When “sex” is included in the output argument, the function counts
the number of females in each time interval. It also provides the
percentage of females relative to the total number of individuals in the
entire table. This output is particularly useful for exploring changes
in the sex distribution of records over time.

summarisedResult <- summariseTrend(
  cdm = cdm,
  event = "condition_occurrence",
  output = "sex",
  interval = "years"
)
summarisedResult |>
  select(variable_name, additional_level, estimate_name, estimate_value)
#> # A tibble: 226 × 4
#>    variable_name     additional_level         estimate_name estimate_value
#>    <chr>             <chr>                    <chr>         <chr>         
#>  1 Number of females 1908-01-01 to 1908-12-31 count         1             
#>  2 Number of females 1908-01-01 to 1908-12-31 percentage    0.04          
#>  3 Number of females 1909-01-01 to 1909-12-31 count         4             
#>  4 Number of females 1909-01-01 to 1909-12-31 percentage    0.15          
#>  5 Number of females 1910-01-01 to 1910-12-31 count         12            
#>  6 Number of females 1910-01-01 to 1910-12-31 percentage    0.45          
#>  7 Number of females 1911-01-01 to 1911-12-31 count         9             
#>  8 Number of females 1911-01-01 to 1911-12-31 percentage    0.33          
#>  9 Number of females 1912-01-01 to 1912-12-31 count         16            
#> 10 Number of females 1912-01-01 to 1912-12-31 percentage    0.59          
#> # ℹ 216 more rows
…
For example, to see quarterly trends:

summarisedResult <- summariseTrend(
  cdm = cdm,
  event = "condition_occurrence",
  interval = "quarters",
  output = "record"
)

summarisedResult |>
  select(additional_level, estimate_value)
#> # A tibble: 884 × 2
#>    additional_level         estimate_value
#>    <chr>                    <chr>         
#>  1 1908-10-01 to 1908-12-31 1             
#>  2 1908-10-01 to 1908-12-31 0.00          
#>  3 1909-04-01 to 1909-06-30 2             
#>  4 1909-04-01 to 1909-06-30 0.00          
#>  5 1909-07-01 to 1909-09-30 2             
#>  6 1909-07-01 to 1909-09-30 0.00          
#>  7 1910-01-01 to 1910-03-31 4             
#>  8 1910-01-01 to 1910-03-31 0.01          
#>  9 1910-04-01 to 1910-06-30 4             
#> 10 1910-04-01 to 1910-06-30 0.01          
#> # ℹ 874 more rows
…
You can use the arguments ageGroup and sex
to stratify the results.

summarisedResult <- summariseTrend(
  cdm = cdm,
  event = "condition_occurrence",
  interval = "years",
  output = c("record", "age", "sex"),
  ageGroup = list("<35" = c(0, 34), ">=35" = c(35, Inf)),
  sex = TRUE
)

summarisedResult |>
  select(variable_name, strata_level, estimate_name, estimate_value)
#> # A tibble: 3,318 × 4
#>    variable_name     strata_level   estimate_name estimate_value
#>    <chr>             <chr>          <chr>         <chr>         
#>  1 Number of records overall        count         1             
#>  2 Number of records <35            count         1             
#>  3 Number of records Female         count         1             
#>  4 Number of records Female &&& <35 count         1             
#>  5 Number of females overall        count         1             
#>  6 Number of females <35            count         1             
#>  7 Age               overall        median        0             
#>  8 Age               <35            median        0             
#>  9 Age               Female         median        0             
#> 10 Age               Female &&& <35 median        0             
#> # ℹ 3,308 more rows
…
