…
By default, the function returns the number of records
(`estimate_name == "count_records"`) for each concept_id. To include
counts by person, you can set the `countBy` argument to `"person"` or to
c`("record", "person")` to obtain both record and person counts.

``` r
summariseConceptIdCounts(cdm,
  omopTableName = "drug_exposure",
  countBy = c("record", "person")
) |>
  select(variable_name, estimate_name, estimate_value)
#> # A tibble: 432 × 3
#>    variable_name                                    estimate_name estimate_value
#>    <chr>                                            <chr>         <chr>         
#>  1 pneumococcal polysaccharide vaccine, 23 valent   count_records 100           
#>  2 pneumococcal polysaccharide vaccine, 23 valent   count_subjec… 62            
#>  3 Alendronate                                      count_records 100           
#>  4 Alendronate                                      count_subjec… 67            
#>  5 poliovirus vaccine, inactivated                  count_records 100           
#>  6 poliovirus vaccine, inactivated                  count_subjec… 66            
#>  7 fluticasone                                      count_records 100           
#>  8 fluticasone                                      count_subjec… 63            
#>  9 diphtheria, tetanus toxoids and acellular pertu… count_records 100           
#> 10 diphtheria, tetanus toxoids and acellular pertu… count_subjec… 58            
#> # ℹ 422 more rows
```
…
